%YAML 1.1
%TAG !u! tag:unity3d.com,2011:
--- !u!21 &2100000
Material:
  serializedVersion: 3
  m_ObjectHideFlags: 0
  m_PrefabParentObject: {fileID: 0}
  m_PrefabInternal: {fileID: 0}
  m_Name: dazzle_sleeve
  m_Shader: {fileID: 4800000, guid: d31398fff7b72494c9547e384dc577f0, type: 3}
  m_ShaderKeywords: []
  m_CustomRenderQueue: -1
  m_SavedProperties:
    serializedVersion: 2
    m_TexEnvs:
      data:
        first:
          name: _MainTex
        second:
          m_Texture: {fileID: 2800000, guid: 4ba34ae76088e1d4fb98b244c07a00b5, type: 3}
          m_Scale: {x: 1, y: 1}
          m_Offset: {x: 0, y: 0}
      data:
        first:
          name: _BumpMap
        second:
          m_Texture: {fileID: 2800000, guid: 4a8789269ba966847b26e9cfb105f70c, type: 3}
          m_Scale: {x: 1, y: 1}
          m_Offset: {x: 0, y: 0}
      data:
        first:
          name: _Detail
        second:
          m_Texture: {fileID: 0}
          m_Scale: {x: 1, y: 1}
          m_Offset: {x: 0, y: 0}
      data:
        first:
          name: _Mask1
        second:
          m_Texture: {fileID: 2800000, guid: 57c64e80af3dd3f449bc966fd16779dd, type: 3}
          m_Scale: {x: 1, y: 1}
          m_Offset: {x: 0, y: 0}
      data:
        first:
          name: _Mask2
        second:
          m_Texture: {fileID: 2800000, guid: 03e4079d40599fb40b27ef752bb21c22, type: 3}
          m_Scale: {x: 1, y: 1}
          m_Offset: {x: 0, y: 0}
    m_Floats:
      data:
        first:
          name: _AlphaCut
        second: .400000006
    m_Colors:
      data:
        first:
          name: _Color
        second: {r: .473800004, g: .454600006, b: .652499974, a: 1}
      data:
        first:
          name: _RimColor
        second: {r: 1, g: 1, b: 1, a: 1}
